Case_Study_1
…
##  Conflicts  tidyverse_conflicts() 
## x dplyr::filter() masks stats::filter()
## x dplyr::lag()    masks stats::lag()

library(ggplot2)
num_Breweries_by_state = Breweries %>% group_by(State) %>%
  summarise(count=n())

## `summarise()` ungrouping output (override with `.groups` argument)

num_Breweries_by_state

## # A tibble: 51 x 2
##    State count
##    <fct> <int>
##  1 " AK"     7
##  2 " AL"     3
##  3 " AR"     2
##  4 " AZ"    11
##  5 " CA"    39
##  6 " CO"    47
##  7 " CT"     8
##  8 " DC"     1
##  9 " DE"     2
## 10 " FL"    15
## #  with 41 more rows
…
